Assignment 4
…
After these changes, how many rows and columns are in the complete data set?

20x8

2

Are there any dates in the range from January 1, 2016 through December 31, 2020 that are missing? If so, which ones?

temp = tibble(date2 = seq(ymd("2016-01-01"), ymd("2020-12-31"), 1))
temp

## # A tibble: 1,827 x 1
##    date2     
##    <date>    
##  1 2016-01-01
##  2 2016-01-02
##  3 2016-01-03
##  4 2016-01-04
##  5 2016-01-05
##  6 2016-01-06
##  7 2016-01-07
##  8 2016-01-08
##  9 2016-01-09
## 10 2016-01-10
## # ... with 1,817 more rows
…
